{
  "images" : [
    {
      "idiom" : "iphone",
      "filename" : "onboardingScreen06_es.png",
      "scale" : "1x"
    },
    {
      "idiom" : "iphone",
      "filename" : "onboardingScreen06_es@2x.png",
      "scale" : "2x"
    },
    {
      "idiom" : "iphone",
      "filename" : "onboardingScreen06_es@3x.png",
      "scale" : "3x"
    },
    {
      "idiom" : "ipad",
      "filename" : "onboardingScreen06_es-1.png",
      "scale" : "1x"
    },
    {
      "idiom" : "ipad",
      "scale" : "2x"
    }
  ],
  "info" : {
    "version" : 1,
    "author" : "xcode"
  }
}