{
  "images" : [
    {
      "idiom" : "universal",
      "filename" : "background_trophies_overview_empty@1x.png",
      "scale" : "1x"
    },
    {
      "idiom" : "universal",
      "filename" : "background_trophies_overview_empty@2x.png",
      "scale" : "2x"
    },
    {
      "idiom" : "universal",
      "filename" : "background_trophies_overview_empty@3x.png",
      "scale" : "3x"
    },
    {
      "idiom" : "iphone",
      "filename" : "background_trophies_overview_empty@1x-1.png",
      "scale" : "1x"
    },
    {
      "idiom" : "iphone",
      "filename" : "background_trophies_overview_empty@2x-1.png",
      "scale" : "2x"
    },
    {
      "idiom" : "iphone",
      "filename" : "background_trophies_overview_empty@3x-1.png",
      "scale" : "3x"
    },
    {
      "idiom" : "ipad",
      "filename" : "background_trophies_overview_empty-1.png",
      "scale" : "1x"
    },
    {
      "idiom" : "ipad",
      "filename" : "background_trophies_overview_empty.png",
      "scale" : "2x"
    }
  ],
  "info" : {
    "version" : 1,
    "author" : "xcode"
  }
}