{
  "images" : [
    {
      "idiom" : "iphone",
      "filename" : "gt_screen_03@1x.png",
      "scale" : "1x"
    },
    {
      "idiom" : "iphone",
      "filename" : "gt_screen_03@2x.png",
      "scale" : "2x"
    },
    {
      "idiom" : "iphone",
      "filename" : "gt_screen_03@3x.png",
      "scale" : "3x"
    },
    {
      "idiom" : "ipad",
      "filename" : "Guided_Tour_Step03.png",
      "scale" : "1x"
    },
    {
      "idiom" : "ipad",
      "scale" : "2x"
    }
  ],
  "info" : {
    "version" : 1,
    "author" : "xcode"
  }
}